{
  "tadoMode": "HOME",
  "geolocationOverride": false,
  "geolocationOverrideDisableTime": null,
  "preparation": null,
  "setting": {
    "type": "HEATING",
    "power": "ON",
    "temperature": {
      "celsius": 21.00,
      "fahrenheit": 69.80
    }
  },
  "overlayType": null,
  "overlay": null,
  "openWindow": null,
  "nextScheduleChange": {
    "start": "2024-02-25T22:00:00Z",
    "setting": {
      "type": "HEATING",
      "power": "ON",
      "temperature": {
        "celsius": 18.00,
        "fahrenheit": 64.40
      }
    }
  },
  "nextTimeBlock": {
    "start": "2024-02-25T22:00:00.000Z"
  },
  "link": {
    "state": "ONLINE"
  },
  "activityDataPoints": {
    "heatingPower": {
      "type": "PERCENTAGE",
      "percentage": 0.00,
      "timestamp": "2024-02-25T21:51:46.642Z"
    }
  },
  "sensorDataPoints": {
    "insideTemperature": {
      "celsius": 21.56,
      "fahrenheit": 70.81,
      "timestamp": "2024-02-25T21:34:04.532Z",
      "type": "TEMPERATURE",
      "precision": {
        "celsius": 0.1,
        "fahrenheit": 0.1
      }
    },
    "humidity": {
      "type": "PERCENTAGE",
      "percentage": 52.00,
      "timestamp": "2024-02-25T21:34:04.532Z"
    }
  }
}
