[
  {
    "id": 7,
    "name": "Zone 7",
    "type": "HEATING",
    "dateCreated": "2020-11-30T15:38:47.332Z",
    "deviceTypes": [
      "SU02"
    ],
    "devices": [
      {
        "deviceType": "SU02",
        "serialNo": "AA1234567890",
        "shortSerialNo": "AA1234567890",
        "currentFwVersion": "1.1",
        "connectionState": {
          "value": true,
          "timestamp": "2024-02-25T18:44:07.663Z"
        },
        "characteristics": {
          "capabilities": [
            "INSIDE_TEMPERATURE_MEASUREMENT",
            "IDENTIFY"
          ]
        },
        "batteryState": "NORMAL",
        "duties": [
          "ZONE_UI",
          "ZONE_LEADER"
        ]
      }
    ],
    "reportAvailable": false,
    "showScheduleSetup": false,
    "supportsDazzle": true,
    "dazzleEnabled": true,
    "dazzleMode": {
      "supported": true,
      "enabled": true
    },
    "openWindowDetection": {
      "supported": true,
      "enabled": true,
      "timeoutInSeconds": 900
    }
  },
  {
    "id": 5,
    "name": "Zone 5",
    "type": "HEATING",
    "dateCreated": "2020-11-30T11:46:40.303Z",
    "deviceTypes": [
      "VA02"
    ],
    "devices": [
      {
        "deviceType": "VA02",
        "serialNo": "AA1234567890",
        "shortSerialNo": "AA1234567890",
        "currentFwVersion": "1.1",
        "connectionState": {
          "value": true,
          "timestamp": "2024-02-25T18:43:59.657Z"
        },
        "characteristics": {
          "capabilities": [
            "INSIDE_TEMPERATURE_MEASUREMENT",
            "IDENTIFY"
          ]
        },
        "mountingState": {
          "value": "CALIBRATED",
          "timestamp": "2023-11-09T23:03:46.773Z"
        },
        "mountingStateWithError": "CALIBRATED",
        "batteryState": "NORMAL",
        "childLockEnabled": true,
        "duties": [
          "ZONE_UI",
          "ZONE_DRIVER",
          "ZONE_LEADER"
        ]
      }
    ],
    "reportAvailable": false,
    "showScheduleSetup": false,
    "supportsDazzle": true,
    "dazzleEnabled": true,
    "dazzleMode": {
      "supported": true,
      "enabled": true
    },
    "openWindowDetection": {
      "supported": true,
      "enabled": true,
      "timeoutInSeconds": 900
    }
  },
  {
    "id": 8,
    "name": "Zone 8",
    "type": "HEATING",
    "dateCreated": "2020-12-03T11:25:03.499Z",
    "deviceTypes": [
      "VA02"
    ],
    "devices": [
      {
        "deviceType": "VA02",
        "serialNo": "AA1234567890",
        "shortSerialNo": "AA1234567890",
        "currentFwVersion": "1.1",
        "connectionState": {
          "value": true,
          "timestamp": "2024-02-25T18:45:58.770Z"
        },
        "characteristics": {
          "capabilities": [
            "INSIDE_TEMPERATURE_MEASUREMENT",
            "IDENTIFY"
          ]
        },
        "mountingState": {
          "value": "CALIBRATED",
          "timestamp": "2023-09-02T08:23:54.258Z"
        },
        "mountingStateWithError": "CALIBRATED",
        "batteryState": "NORMAL",
        "childLockEnabled": true,
        "duties": [
          "ZONE_UI",
          "ZONE_DRIVER",
          "ZONE_LEADER"
        ]
      }
    ],
    "reportAvailable": false,
    "showScheduleSetup": false,
    "supportsDazzle": true,
    "dazzleEnabled": true,
    "dazzleMode": {
      "supported": true,
      "enabled": true
    },
    "openWindowDetection": {
      "supported": true,
      "enabled": true,
      "timeoutInSeconds": 900
    }
  },
  {
    "id": 2,
    "name": "Zone 2",
    "type": "HEATING",
    "dateCreated": "2020-11-30T11:26:59.984Z",
    "deviceTypes": [
      "VA02"
    ],
    "devices": [
      {
        "deviceType": "VA02",
        "serialNo": "AA1234567890",
        "shortSerialNo": "AA1234567890",
        "currentFwVersion": "1.1",
        "connectionState": {
          "value": true,
          "timestamp": "2024-02-25T18:46:11.837Z"
        },
        "characteristics": {
          "capabilities": [
            "INSIDE_TEMPERATURE_MEASUREMENT",
            "IDENTIFY"
          ]
        },
        "mountingState": {
          "value": "CALIBRATED",
          "timestamp": "2023-11-18T13:52:59.131Z"
        },
        "mountingStateWithError": "CALIBRATED",
        "batteryState": "NORMAL",
        "childLockEnabled": true,
        "duties": [
          "ZONE_UI",
          "ZONE_DRIVER",
          "ZONE_LEADER"
        ]
      }
    ],
    "reportAvailable": false,
    "showScheduleSetup": false,
    "supportsDazzle": true,
    "dazzleEnabled": true,
    "dazzleMode": {
      "supported": true,
      "enabled": true
    },
    "openWindowDetection": {
      "supported": true,
      "enabled": true,
      "timeoutInSeconds": 900
    }
  },
  {
    "id": 3,
    "name": "Zone 3",
    "type": "HEATING",
    "dateCreated": "2020-11-30T11:34:14.508Z",
    "deviceTypes": [
      "VA02"
    ],
    "devices": [
      {
        "deviceType": "VA02",
        "serialNo": "AA1234567890",
        "shortSerialNo": "AA1234567890",
        "currentFwVersion": "1.1",
        "connectionState": {
          "value": true,
          "timestamp": "2024-02-25T18:44:32.717Z"
        },
        "characteristics": {
          "capabilities": [
            "INSIDE_TEMPERATURE_MEASUREMENT",
            "IDENTIFY"
          ]
        },
        "mountingState": {
          "value": "CALIBRATED",
          "timestamp": "2023-10-15T09:20:06.708Z"
        },
        "mountingStateWithError": "CALIBRATED",
        "batteryState": "NORMAL",
        "childLockEnabled": true,
        "duties": [
          "ZONE_UI",
          "ZONE_DRIVER",
          "ZONE_LEADER"
        ]
      }
    ],
    "reportAvailable": false,
    "showScheduleSetup": false,
    "supportsDazzle": true,
    "dazzleEnabled": true,
    "dazzleMode": {
      "supported": true,
      "enabled": true
    },
    "openWindowDetection": {
      "supported": true,
      "enabled": true,
      "timeoutInSeconds": 900
    }
  },
  {
    "id": 4,
    "name": "Zone 4",
    "type": "HEATING",
    "dateCreated": "2020-11-30T11:36:59.919Z",
    "deviceTypes": [
      "VA02"
    ],
    "devices": [
      {
        "deviceType": "VA02",
        "serialNo": "AA1234567890",
        "shortSerialNo": "AA1234567890",
        "currentFwVersion": "1.1",
        "connectionState": {
          "value": true,
          "timestamp": "2024-02-25T18:43:13.892Z"
        },
        "characteristics": {
          "capabilities": [
            "INSIDE_TEMPERATURE_MEASUREMENT",
            "IDENTIFY"
          ]
        },
        "mountingState": {
          "value": "CALIBRATED",
          "timestamp": "2023-09-02T10:02:53.219Z"
        },
        "mountingStateWithError": "CALIBRATED",
        "batteryState": "NORMAL",
        "childLockEnabled": true,
        "duties": [
          "ZONE_UI",
          "ZONE_DRIVER",
          "ZONE_LEADER"
        ]
      }
    ],
    "reportAvailable": false,
    "showScheduleSetup": false,
    "supportsDazzle": true,
    "dazzleEnabled": true,
    "dazzleMode": {
      "supported": true,
      "enabled": true
    },
    "openWindowDetection": {
      "supported": true,
      "enabled": true,
      "timeoutInSeconds": 900
    }
  },
  {
    "id": 1,
    "name": "Zone 1",
    "type": "HEATING",
    "dateCreated": "2020-11-30T10:35:08.805Z",
    "deviceTypes": [
      "VA02"
    ],
    "devices": [
      {
        "deviceType": "VA02",
        "serialNo": "AA1234567890",
        "shortSerialNo": "AA1234567890",
        "currentFwVersion": "1.1",
        "connectionState": {
          "value": true,
          "timestamp": "2024-02-25T18:42:09.495Z"
        },
        "characteristics": {
          "capabilities": [
            "INSIDE_TEMPERATURE_MEASUREMENT",
            "IDENTIFY"
          ]
        },
        "mountingState": {
          "value": "CALIBRATED",
          "timestamp": "2023-09-03T03:24:50.508Z"
        },
        "mountingStateWithError": "CALIBRATED",
        "batteryState": "NORMAL",
        "childLockEnabled": true,
        "duties": [
          "ZONE_UI",
          "ZONE_DRIVER",
          "ZONE_LEADER"
        ]
      }
    ],
    "reportAvailable": false,
    "showScheduleSetup": false,
    "supportsDazzle": true,
    "dazzleEnabled": true,
    "dazzleMode": {
      "supported": true,
      "enabled": true
    },
    "openWindowDetection": {
      "supported": true,
      "enabled": true,
      "timeoutInSeconds": 900
    }
  }
]
