{
  "tadoMode": "HOME",
  "geolocationOverride": false,
  "geolocationOverrideDisableTime": null,
  "preparation": null,
  "setting": {
    "type": "HEATING",
    "power": "ON",
    "temperature": {
      "celsius": 18.00,
      "fahrenheit": 64.40
    }
  },
  "overlayType": null,
  "overlay": null,
  "openWindow": null,
  "nextScheduleChange": {
    "start": "2024-02-26T07:00:00Z",
    "setting": {
      "type": "HEATING",
      "power": "ON",
      "temperature": {
        "celsius": 20.00,
        "fahrenheit": 68.00
      }
    }
  },
  "nextTimeBlock": {
    "start": "2024-02-26T07:00:00.000Z"
  },
  "link": {
    "state": "ONLINE"
  },
  "activityDataPoints": {
    "heatingPower": {
      "type": "PERCENTAGE",
      "percentage": 0.00,
      "timestamp": "2024-02-25T21:47:10.695Z"
    }
  },
  "sensorDataPoints": {
    "insideTemperature": {
      "celsius": 21.28,
      "fahrenheit": 70.30,
      "timestamp": "2024-02-25T21:51:00.935Z",
      "type": "TEMPERATURE",
      "precision": {
        "celsius": 0.1,
        "fahrenheit": 0.1
      }
    },
    "humidity": {
      "type": "PERCENTAGE",
      "percentage": 41.60,
      "timestamp": "2024-02-25T21:51:00.935Z"
    }
  }
}
