{
  "tadoMode": "HOME",
  "geolocationOverride": false,
  "geolocationOverrideDisableTime": null,
  "preparation": null,
  "setting": {
    "type": "HEATING",
    "power": "ON",
    "temperature": {
      "celsius": 22.50,
      "fahrenheit": 72.50
    }
  },
  "overlayType": null,
  "overlay": null,
  "openWindow": null,
  "nextScheduleChange": {
    "start": "2024-02-26T07:00:00Z",
    "setting": {
      "type": "HEATING",
      "power": "ON",
      "temperature": {
        "celsius": 18.00,
        "fahrenheit": 64.40
      }
    }
  },
  "nextTimeBlock": {
    "start": "2024-02-26T07:00:00.000Z"
  },
  "link": {
    "state": "ONLINE"
  },
  "activityDataPoints": {
    "heatingPower": {
      "type": "PERCENTAGE",
      "percentage": 0.00,
      "timestamp": "2024-02-25T21:47:38.806Z"
    }
  },
  "sensorDataPoints": {
    "insideTemperature": {
      "celsius": 22.90,
      "fahrenheit": 73.22,
      "timestamp": "2024-02-25T21:51:34.850Z",
      "type": "TEMPERATURE",
      "precision": {
        "celsius": 0.1,
        "fahrenheit": 0.1
      }
    },
    "humidity": {
      "type": "PERCENTAGE",
      "percentage": 55.70,
      "timestamp": "2024-02-25T21:51:34.850Z"
    }
  }
}
