{
  "request": {
    "method": "POST",
    "urlPath": "/api/v2/write",
    "headers": {
      "Content-Type": {
        "contains": "text/plain"
      },
      "Accept": {
        "contains": "application/json"
      }
    },
    "queryParameters": {
      "bucket": {
        "equalTo": "dyson-air-quality"
      },
      "precision": {
        "equalTo": "ms"
      }
    },
    "bodyPatterns": [
      {
        "equalTo": "device-status,name=dyson-device,serial=AA1-UK-ABC01234D,type=527 auto_mode=\"OFF\",carbon_filter_state=-1i,fan_direction=\"BACK\",fan_speed=10i,fan_state=\"OFF\",fan_status=\"ON\",heat_mode=\"OFF\",heat_state=\"OFF\",heat_target=0i,hepa_filter_state=-1i,night_mode=\"OFF\",night_mode_speed=1i,oscillation_state=\"OFF\",tilt_state=\"OK\" 1581361422486"
      }
    ]
  },
  "response": {
    "status": 204,
    "headers": {
      "Content-Type": "application/json",
      "Request-Id": "test-request-id"
    }
  }
}
