{
  "request": {
    "method": "POST",
    "urlPath": "/api/v2/write",
    "headers": {
      "Content-Type": {
        "contains": "text/plain"
      },
      "Accept": {
        "contains": "application/json"
      }
    },
    "queryParameters": {
      "bucket": {
        "equalTo": "dyson-air-quality"
      },
      "precision": {
        "equalTo": "ms"
      }
    },
    "bodyPatterns": [
      {
        "equalTo": "environment-reading,name=dyson-device,serial=AA1-UK-ABC01234D,type=527 humidity=73i,temperature=70.0 1581361422486"
      }
    ]
  },
  "response": {
    "status": 204,
    "headers": {
      "Content-Type": "application/json",
      "Request-Id": "test-request-id"
    }
  }
}
