{
  "request": {
    "method": "GET",
    "urlPath": "/api/getstationsdata",
    "headers": {
      "Accept": {
        "contains": "application/json"
      },
      "Authorization": {
        "equalTo": "Bearer a-valid-access-token"
      }
    }
  },
  "response": {
    "status": 200,
    "headers": {
      "Content-Type": "application/json"
    },
    "bodyFileName": "stationsdata.json"
  }
}
