{
  "body": {
    "devices": [
      {
        "_id": "70:ee:50:22:a3:00",
        "station_name": "Station Name",
        "date_setup": 1435834348,
        "last_setup": 1435834348,
        "type": "NAMain",
        "last_status_store": 1555677748,
        "module_name": "Outdoor Module",
        "firmware": 201,
        "wifi_status": 67,
        "reachable": true,
        "co2_calibrating": false,
        "data_type": [
          "Temperature",
          "CO2",
          "Humidity",
          "Noise",
          "Pressure"
        ],
        "place": {
          "timezone": "Africa/Lagos",
          "country": "EG",
          "altitude": 144,
          "location": [
            "30.89600807058707",
            "29.94281464724796"
          ]
        },
        "home_id": "abc",
        "home_name": "Home Name",
        "dashboard_data": {
          "time_utc": 1682668555,
          "Temperature": 19.2,
          "CO2": 485,
          "Humidity": 54,
          "Noise": 49,
          "Pressure": 1010.7,
          "AbsolutePressure": 1009.4,
          "min_temp": 18.1,
          "max_temp": 19.2,
          "date_max_temp": 1682663717,
          "date_min_temp": 1682650709,
          "temp_trend": "stable",
          "pressure_trend": "stable"
        },
        "modules": [
          {
            "_id": "C0:81:82:93:A6:D5",
            "type": "NAModule1",
            "module_name": "Outdoor Module",
            "last_setup": 1586259720,
            "data_type": [
              "Temperature",
              "Humidity"
            ],
            "battery_percent": 84,
            "reachable": true,
            "firmware": 50,
            "last_message": 1682668555,
            "last_seen": 1682668549,
            "rf_status": 76,
            "battery_vp": 5704,
            "dashboard_data": {
              "time_utc": 1682668549,
              "Temperature": 13.1,
              "Humidity": 98,
              "min_temp": 10.8,
              "max_temp": 13.1,
              "date_max_temp": 1682668549,
              "date_min_temp": 1682636453,
              "temp_trend": "up"
            }
          },
          {
            "_id": "70:54:2E:86:9B:DD",
            "type": "NAModule4",
            "module_name": "Indoor Module One",
            "last_setup": 1586260398,
            "data_type": [
              "Temperature",
              "CO2",
              "Humidity"
            ],
            "battery_percent": 100,
            "reachable": true,
            "firmware": 51,
            "last_message": 1682668555,
            "last_seen": 1682668530,
            "rf_status": 88,
            "battery_vp": 6049,
            "dashboard_data": {
              "time_utc": 1682668530,
              "Temperature": 19.8,
              "CO2": 1537,
              "Humidity": 59,
              "min_temp": 19.8,
              "max_temp": 20.8,
              "date_max_temp": 1682639209,
              "date_min_temp": 1682648849,
              "temp_trend": "stable"
            }
          },
          {
            "_id": "A0:1A:E5:44:11:39",
            "type": "NAModule4",
            "module_name": "Indoor Module Two",
            "last_setup": 1586260438,
            "data_type": [
              "Temperature",
              "CO2",
              "Humidity"
            ],
            "battery_percent": 63,
            "reachable": true,
            "firmware": 51,
            "last_message": 1682668555,
            "last_seen": 1682668549,
            "rf_status": 70,
            "battery_vp": 5331,
            "dashboard_data": {
              "time_utc": 1682668549,
              "Temperature": 21.2,
              "CO2": 989,
              "Humidity": 54,
              "min_temp": 21.1,
              "max_temp": 21.3,
              "date_max_temp": 1682640093,
              "date_min_temp": 1682646451,
              "temp_trend": "stable"
            }
          },
          {
            "_id": "5C:BB:5D:0D:A0:2A",
            "type": "NAModule3",
            "module_name": "Rain gauge",
            "last_setup": 1586709548,
            "data_type": [
              "Rain"
            ],
            "battery_percent": 90,
            "reachable": true,
            "firmware": 12,
            "last_message": 1682668555,
            "last_seen": 1682668549,
            "rf_status": 79,
            "battery_vp": 5774,
            "dashboard_data": {
              "time_utc": 1682668549,
              "Rain": 0,
              "sum_rain_1": 0,
              "sum_rain_24": 0.1
            }
          },
          {
            "_id": "6A:05:6E:17:D5:CE",
            "type": "NAModule2",
            "module_name": "Wind Module",
            "last_setup": 1586709664,
            "data_type": [
              "Wind"
            ],
            "battery_percent": 81,
            "reachable": true,
            "firmware": 27,
            "last_message": 1682668555,
            "last_seen": 1682668555,
            "rf_status": 81,
            "battery_vp": 5617,
            "dashboard_data": {
              "time_utc": 1682668549,
              "WindStrength": 7,
              "WindAngle": 222,
              "GustStrength": 11,
              "GustAngle": 213,
              "max_wind_str": 12,
              "max_wind_angle": 209,
              "date_max_wind_str": 1682639812
            }
          }
        ]
      }
    ],
    "user": {
      "mail": "name@mail.com",
      "administrative": {
        "reg_locale": "fr-FR",
        "lang": "fr-FR",
        "country": "FR",
        "unit": 0,
        "windunit": 0,
        "pressureunit": 0,
        "feel_like_algo": 0
      }
    }
  },
  "status": "ok",
  "time_exec": 0.09175801277160645,
  "time_server": 1682668963
}
