{
  "request": {
    "method": "GET",
    "urlPath": "/api/homes/123456/state",
    "headers": {
      "Accept": {
        "contains": "application/json"
      },
      "Authorization": {
        "equalTo": "Bearer a-valid-access-token"
      }
    }
  },
  "response": {
    "status": 200,
    "headers": {
      "Content-Type": "application/json"
    },
    "jsonBody": {
      "presence": "HOME",
      "presenceLocked": true,
      "showSwitchToAutoGeofencingButton": true
    }
  }
}
