{
  "request": {
    "method": "GET",
    "urlPathTemplate": "/api/homes/123456/zones/{zoneId}/state",
    "headers": {
      "Accept": {
        "contains": "application/json"
      },
      "Authorization": {
        "equalTo": "Bearer a-valid-access-token"
      }
    }
  },
  "response": {
    "status": 200,
    "headers": {
      "Content-Type": "application/json"
    },
    "bodyFileName": "zone-state-{{ request.path.zoneId }}-success-response.json"
  }
}
